build/waves.vcd
$date
     Jun 29, 2019       20:27:28
$end

$version
 SystemC 2.3.2-Accellera --- Jun 29 2019 20:08:09
$end

$timescale
     1 ns
$end

$scope module SystemC $end
$var wire    1  aaaaa  Clock       $end
$var wire    1  aaaab  Input       $end
$var wire    1  aaaac  Out1       $end
$var wire    1  aaaad  Out2       $end
$upscope $end
$enddefinitions  $end

$comment
All initial values are dumped below at time 0 sec = 0 timescale units.
$end

$dumpvars
0aaaaa
1aaaab
0aaaac
0aaaad
$end

#1
1aaaaa
1aaaac
1aaaad

#10
0aaaab

#11
0aaaaa

#20
1aaaab

#21
1aaaaa
0aaaac

#31
0aaaaa
1aaaac

#40
0aaaab

#41
1aaaaa
0aaaac

#51
0aaaaa

#61
1aaaaa
1aaaac

